Avengers Endgame text wrangling
…
endgame_tokens <- endgame_tidy %>% 
  unnest_tokens(word, text_full) %>% 
  select(-endgame_text)

# Remove all stopwords, then look at what the counts look like
endgame_nonstop <- endgame_tokens %>% 
  anti_join(stop_words)

nonstop_counts <- endgame_nonstop %>% 
  count(word)
nonstop_counts

## # A tibble: 3,551 x 2
##    word      n
##  * <chr> <int>
##  1 0         1
##  2 0.01      1
##  3 03        1
##  4 04        1
##  5 07        1
##  6 1        18
##  7 10        1
##  8 100       2
##  9 101       1
## 10 102       1
## #  with 3,541 more rows
…
Using sentiment analysis to visualize the sentiments of Avengers: Endgame

get_sentiments(lexicon = "afinn")

## # A tibble: 2,477 x 2
##    word       value
##    <chr>      <dbl>
##  1 abandon       -2
##  2 abandoned     -2
##  3 abandons      -2
##  4 abducted      -2
##  5 abduction     -2
##  6 abductions    -2
##  7 abhor         -3
##  8 abhorred      -3
##  9 abhorrent     -3
## 10 abhors        -3
## #  with 2,467 more rows
…
